第一次作业-探索武汉二手房市场
…
发现3：房子周边交通的便利性也影响着房价，靠近地铁的房子明显要比不靠近的贵，平均贵约2000元/平方米。

2 数据介绍

本报告链家数据获取方式如下：

报告人在2023年9月12日获取了链家武汉二手房网站数据。

链家二手房网站默认显示100页，每页30套房产，因此本数据包括3000套房产信息；

数据包括了页面可见部分的文本信息，具体字段及说明见作业说明。

说明：数据仅用于教学；由于不清楚链家数据的展示规则，因此数据可能并不是武汉二手房市场的随机抽样，结论很可能有很大的偏差，甚至可能是错误的。

#> # A tibble: 3,000 × 18
#>    property_name    property_region price_ttl price_sqm bedrooms livingrooms
#>    <chr>            <chr>               <dbl>     <dbl>    <dbl>       <dbl>
#>  1 南湖名都A区      南湖沃尔玛           237      18709        3           1
#>  2 万科紫悦湾       光谷东               127      14613        3           2
#>  3 东立国际         二七                  75      15968        1           1
#>  4 新都汇           光谷广场             188      15702        3           2
#>  5 保利城一期       团结大道             182      17509        3           2
#>  6 加州橘郡         庙山                 122      10376        3           2
#>  7 省建筑五公司西区 光谷广场              99      12346        2           1
#>  8 保利上城东区     白沙洲               194.     16336        3           2
#>  9 石化大院         中南丁字桥           325      32631        4           1
#> 10 阳光花园         杨汊湖               192      17403        3           2
#> # ℹ 2,990 more rows
#> # ℹ 12 more variables: building_area <dbl>, directions1 <chr>,
#> #   directions2 <chr>, decoration <chr>, property_t_height <dbl>,
#> #   property_height <chr>, property_style <chr>, followers <dbl>,
#> #   near_subway <chr>, if_2y <chr>, has_key <chr>, vr <chr>
…
